<svg width="145" height="379" viewBox="0 0 145 379" fill="none" xmlns="http://www.w3.org/2000/svg">
<path d="M0.447596 25.4335C0.403187 11.8044 11.4157 0.719859 25.0448 0.675451L118.176 0.371997C131.805 0.327589 142.89 11.3401 142.934 24.9692L144.003 353.052C144.047 366.681 133.035 377.765 119.406 377.81L26.2746 378.113C12.6455 378.157 1.56101 367.145 1.5166 353.516L0.447596 25.4335Z" fill="white" fill-opacity="0.17"/>
</svg>
