<svg width="12" height="22" viewBox="0 0 12 22" fill="none" xmlns="http://www.w3.org/2000/svg">
<g filter="url(#filter0_ii_70_2019)">
<path fill-rule="evenodd" clip-rule="evenodd" d="M0.8953 10.3948L0.895148 10.3948L0.876061 4.53683C0.869343 2.47509 2.53527 0.798268 4.59702 0.79155C6.65876 0.784832 8.33558 2.45076 8.3423 4.51251L8.34576 5.57491C8.34894 6.55184 8.05978 7.46148 7.5606 8.221C9.98967 9.28662 11.6899 11.709 11.6991 14.5322L11.7041 16.0501C11.7138 19.0298 9.30619 21.4531 6.32654 21.4629C3.3469 21.4726 0.92355 19.065 0.913842 16.0853L0.8953 10.3948Z" fill="white"/>
</g>
<defs>
<filter id="filter0_ii_70_2019" x="-3.06428" y="-2.49285" width="16.521" height="26.3643" filterUnits="userSpaceOnUse" color-interpolation-filters="sRGB">
<feFlood flood-opacity="0" result="BackgroundImageFix"/>
<feBlend mode="normal" in="SourceGraphic" in2="BackgroundImageFix" result="shape"/>
<feColorMatrix in="SourceAlpha" type="matrix" values="0 0 0 0 0 0 0 0 0 0 0 0 0 0 0 0 0 0 127 0" result="hardAlpha"/>
<feOffset dx="1.75166" dy="-3.28436"/>
<feGaussianBlur stdDeviation="3.28436"/>
<feComposite in2="hardAlpha" operator="arithmetic" k2="-1" k3="1"/>
<feColorMatrix type="matrix" values="0 0 0 0 0 0 0 0 0 0 0 0 0 0 0 0 0 0 0.2 0"/>
<feBlend mode="normal" in2="shape" result="effect1_innerShadow_70_2019"/>
<feColorMatrix in="SourceAlpha" type="matrix" values="0 0 0 0 0 0 0 0 0 0 0 0 0 0 0 0 0 0 127 0" result="hardAlpha"/>
<feOffset dx="-3.94123" dy="2.40853"/>
<feGaussianBlur stdDeviation="3.28436"/>
<feComposite in2="hardAlpha" operator="arithmetic" k2="-1" k3="1"/>
<feColorMatrix type="matrix" values="0 0 0 0 1 0 0 0 0 1 0 0 0 0 1 0 0 0 1 0"/>
<feBlend mode="normal" in2="effect1_innerShadow_70_2019" result="effect2_innerShadow_70_2019"/>
</filter>
</defs>
</svg>
