<svg width="22" height="30" viewBox="0 0 22 30" fill="none" xmlns="http://www.w3.org/2000/svg">
<path fill-rule="evenodd" clip-rule="evenodd" d="M0.078917 11.4805C0.0874505 11.4804 0.0941556 11.4731 0.0934937 11.4646C0.0731865 11.2036 0.0624246 10.9399 0.0615577 10.6738C0.0426749 4.87863 4.72531 0.165378 10.5205 0.146495C16.3157 0.127612 21.029 4.81025 21.0479 10.6055C21.0619 14.901 18.4927 18.6022 14.8021 20.2377C13.787 20.6876 13.0121 21.6284 13.0157 22.7387V22.7387C13.0273 26.305 10.1457 29.2055 6.57944 29.2171C3.01316 29.2287 0.112699 26.3471 0.101079 22.7808L0.0643063 11.4952C0.0642799 11.4871 0.0708213 11.4805 0.078917 11.4805V11.4805Z" fill="white"/>
</svg>
