<svg width="225" height="2" viewBox="0 0 225 2" fill="none" xmlns="http://www.w3.org/2000/svg">
<line x1="0.646484" y1="1.0147" x2="224.351" y2="1.01472" stroke="#233039" stroke-width="0.158095"/>
</svg>
