<svg width="17" height="10" viewBox="0 0 17 10" fill="none" xmlns="http://www.w3.org/2000/svg">
<g filter="url(#filter0_d_70_2070)">
<path d="M1.98047 0.589844L9.11437 6.14385L14.8657 0.547859" stroke="white" stroke-width="0.384636"/>
</g>
<defs>
<filter id="filter0_d_70_2070" x="0.324738" y="0.410156" width="16.2138" height="9.06537" filterUnits="userSpaceOnUse" color-interpolation-filters="sRGB">
<feFlood flood-opacity="0" result="BackgroundImageFix"/>
<feColorMatrix in="SourceAlpha" type="matrix" values="0 0 0 0 0 0 0 0 0 0 0 0 0 0 0 0 0 0 127 0" result="hardAlpha"/>
<feOffset dy="1.53854"/>
<feGaussianBlur stdDeviation="0.769272"/>
<feColorMatrix type="matrix" values="0 0 0 0 0 0 0 0 0 0 0 0 0 0 0 0 0 0 0.25 0"/>
<feBlend mode="normal" in2="BackgroundImageFix" result="effect1_dropShadow_70_2070"/>
<feBlend mode="normal" in="SourceGraphic" in2="effect1_dropShadow_70_2070" result="shape"/>
</filter>
</defs>
</svg>
