<svg width="136" height="33" viewBox="0 0 136 33" fill="none" xmlns="http://www.w3.org/2000/svg">
<path d="M0 14C0 6.26801 6.26801 0 14 0H122C129.732 0 136 6.26801 136 14V19C136 26.732 129.732 33 122 33H14C6.26801 33 0 26.732 0 19V14Z" fill="white"/>
</svg>
