<svg width="379" height="144" viewBox="0 0 379 144" fill="none" xmlns="http://www.w3.org/2000/svg">
<path d="M25.4608 143.606C11.8317 143.65 0.747203 132.637 0.702795 119.008L0.399341 25.8772C0.354933 12.2481 11.3675 1.16356 24.9965 1.11915L353.079 0.0501481C366.708 0.00573995 377.793 11.0183 377.837 24.6473L378.14 117.779C378.185 131.408 367.172 142.492 353.543 142.537L25.4608 143.606Z" fill="white" fill-opacity="0.17"/>
</svg>
