<svg width="379" height="144" viewBox="0 0 379 144" fill="none" xmlns="http://www.w3.org/2000/svg">
<path d="M25.4315 143.558C11.8024 143.602 0.717906 132.59 0.673498 118.961L0.370044 25.8293C0.325636 12.2002 11.3382 1.11571 24.9672 1.0713L353.05 0.00229459C366.679 -0.0421136 377.763 10.9704 377.808 24.5995L378.111 117.731C378.155 131.36 367.143 142.444 353.514 142.489L25.4315 143.558Z" fill="white" fill-opacity="0.17"/>
</svg>
