<svg width="20" height="20" viewBox="0 0 20 20" fill="none" xmlns="http://www.w3.org/2000/svg">
<path d="M0.0839844 9.91625C0.0839844 8.48668 0.0839844 7.77189 0.398009 7.16168C0.712034 6.55147 1.29368 6.13601 2.45697 5.30509L8.35381 1.09306C9.14904 0.52504 9.54666 0.241028 10.0007 0.241028C10.4546 0.241028 10.8523 0.52504 11.6475 1.09306L17.5443 5.30509C18.7076 6.13601 19.2893 6.55147 19.6033 7.16168C19.9173 7.77189 19.9173 8.48668 19.9173 9.91625V16.9167C19.9173 18.2524 19.9173 18.9202 19.5024 19.3352C19.0875 19.7501 18.4196 19.7501 17.084 19.7501H2.91732C1.58167 19.7501 0.913848 19.7501 0.498916 19.3352C0.0839844 18.9202 0.0839844 18.2524 0.0839844 16.9167V9.91625Z" fill="white"/>
</svg>
