<svg width="33" height="82" viewBox="0 0 33 82" fill="none" xmlns="http://www.w3.org/2000/svg">
<path d="M19 0C26.732 0 33 6.26801 33 14L33 67.687C33 75.419 26.732 81.687 19 81.687H14.458C6.72603 81.687 0.458015 75.419 0.458015 67.687L0.458015 14C0.458015 6.26802 6.72603 0 14.458 0L19 0Z" fill="#797979"/>
</svg>
