<svg width="19" height="18" viewBox="0 0 19 18" fill="none" xmlns="http://www.w3.org/2000/svg">
<g clip-path="url(#clip0_183_2959)">
<path d="M11.886 15.0898H3.79518C2.11175 15.0898 0.742188 13.7202 0.742188 12.0368C0.742188 11.7608 0.965987 11.5371 1.24192 11.5371C1.51786 11.5371 1.74166 11.7608 1.74166 12.0368C1.74166 13.1691 2.66291 14.0903 3.79515 14.0903H11.886C12.162 14.0903 12.3857 14.314 12.3857 14.59C12.3858 14.8661 12.162 15.0898 11.886 15.0898Z" fill="white"/>
<path d="M6.11981 11.8216C8.01649 11.8216 9.55406 10.2841 9.55406 8.38738C9.55406 6.4907 8.01649 4.95312 6.11981 4.95312C4.22312 4.95312 2.68555 6.4907 2.68555 8.38738C2.68555 10.2841 4.22312 11.8216 6.11981 11.8216Z" fill="#FFA800"/>
<path d="M16.4137 9.29031C16.5746 8.80881 16.6559 8.3067 16.6559 7.79151C16.6559 5.17419 14.5265 3.04492 11.9093 3.04492C10.3877 3.04492 8.97411 3.77257 8.08632 4.97848C7.49552 4.63719 6.82344 4.45456 6.1244 4.45456C6.10477 4.45456 6.08507 4.4547 6.06533 4.455C5.01468 4.47056 4.03287 4.89428 3.30094 5.64815C2.56895 6.40208 2.17437 7.39591 2.18989 8.44657C2.20525 9.48693 2.62197 10.4619 3.36334 11.1918C4.10396 11.9209 5.08383 12.3224 6.12239 12.3224C6.14203 12.3224 6.16173 12.3223 6.18146 12.322C8.35037 12.29 10.0889 10.4994 10.0569 8.33037C10.0415 7.29001 9.62479 6.31506 8.88342 5.58517C8.88288 5.58463 8.88227 5.58412 8.88166 5.58351C9.58209 4.62374 10.7028 4.04429 11.9093 4.04429C13.9755 4.04429 15.6564 5.72525 15.6564 7.79137C15.6564 8.34009 15.5396 8.86998 15.3093 9.36629C15.2475 9.49957 15.2474 9.6533 15.3092 9.78661C15.3709 9.91993 15.4882 10.0193 15.6298 10.0584C16.5167 10.3029 17.1362 11.1168 17.1362 12.0376C17.1362 13.1699 16.215 14.091 15.0827 14.091C14.8067 14.091 14.583 14.3148 14.583 14.5908C14.583 14.8668 14.8068 15.0905 15.0827 15.0905C16.7662 15.0905 18.1357 13.7209 18.1357 12.0375C18.1357 10.8563 17.4495 9.7931 16.4137 9.29031ZM9.05753 8.34525C9.08141 9.96317 7.78457 11.2989 6.16669 11.3227C6.15188 11.3229 6.1371 11.323 6.12236 11.323C4.52853 11.323 3.21273 10.026 3.18926 8.43183C3.17772 7.64807 3.47196 6.90674 4.01799 6.34437C4.56402 5.782 5.29635 5.46592 6.08011 5.45437C6.09492 5.45417 6.10969 5.45403 6.12443 5.45403C7.7182 5.45407 9.03399 6.75104 9.05753 8.34525Z" fill="white"/>
<path d="M13.7713 8.72996C13.4987 8.72996 13.2758 8.51109 13.2718 8.23759C13.2653 7.80083 13.0892 7.39273 12.7758 7.08847C12.4624 6.78417 12.05 6.62012 11.6126 6.62664C11.3371 6.63078 11.1096 6.41031 11.1055 6.13434C11.1015 5.85837 11.3218 5.63135 11.5979 5.62724C12.3034 5.61705 12.9671 5.8811 13.4721 6.37136C13.977 6.86161 14.2608 7.51912 14.2712 8.22282C14.2753 8.49879 14.0549 8.72582 13.7789 8.72993C13.7763 8.72996 13.7738 8.72996 13.7713 8.72996Z" fill="white"/>
</g>
<defs>
<clipPath id="clip0_183_2959">
<rect width="17.3905" height="17.3905" fill="white" transform="translate(0.742188 0.371094)"/>
</clipPath>
</defs>
</svg>
