<svg width="383" height="1" viewBox="0 0 383 1" fill="none" xmlns="http://www.w3.org/2000/svg">
<line x1="0.755859" y1="0.732335" x2="382.254" y2="0.732335" stroke="#E0E0E0" stroke-width="0.406425"/>
</svg>
