<svg width="225" height="1" viewBox="0 0 225 1" fill="none" xmlns="http://www.w3.org/2000/svg">
<line x1="0.646484" y1="0.557671" x2="224.351" y2="0.557691" stroke="#233039" stroke-width="0.158095"/>
</svg>
