<svg width="19" height="19" viewBox="0 0 19 19" fill="none" xmlns="http://www.w3.org/2000/svg">
<g clip-path="url(#clip0_183_2895)">
<path d="M16.4109 7.13661C16.5646 6.66476 16.6422 6.17341 16.6422 5.66959C16.6422 3.04845 14.5098 0.916016 11.8886 0.916016C10.3032 0.916016 8.83448 1.70433 7.95453 3.00063C7.84275 2.96772 7.72982 2.93993 7.61589 2.91629C7.60693 2.91443 7.59786 2.91269 7.58889 2.91093C7.52986 2.89907 7.47055 2.88841 7.41101 2.87907C7.40242 2.87771 7.39383 2.87618 7.38523 2.87489C7.31859 2.86484 7.25164 2.85621 7.18439 2.84928C7.17665 2.84846 7.1688 2.84792 7.16102 2.84717C7.10335 2.8416 7.04544 2.83722 6.98739 2.83389C6.97078 2.83294 6.95424 2.83202 6.9376 2.83128C6.8716 2.82825 6.80547 2.82622 6.73897 2.82622C4.36479 2.82622 2.43323 4.75778 2.43323 7.13196C2.43323 7.13861 2.43323 7.14527 2.43329 7.15193C1.42037 7.67228 0.763672 8.72512 0.763672 9.88532C0.763672 11.5793 2.1418 12.9574 3.83571 12.9574H5.67747C5.97412 12.9574 6.21457 12.7169 6.21457 12.4203C6.21457 12.1236 5.97409 11.8832 5.67747 11.8832H3.83571C2.73409 11.8832 1.83787 10.9869 1.83787 9.88532C1.83787 9.04121 2.37229 8.28448 3.16777 8.00223C3.39996 7.91983 3.54639 7.69005 3.52285 7.44481C3.51266 7.33813 3.50743 7.23287 3.50743 7.13196C3.50743 5.35011 4.95709 3.90045 6.73893 3.90045C6.79399 3.90045 6.84867 3.90191 6.90302 3.90463C6.91382 3.90517 6.92452 3.90636 6.93525 3.90701C6.97921 3.90962 7.02305 3.91265 7.06653 3.91699C7.0754 3.91791 7.08419 3.9193 7.09302 3.92025C7.13837 3.92518 7.18354 3.93068 7.22828 3.93751C7.2349 3.93853 7.24142 3.93989 7.24804 3.94094C7.29482 3.94834 7.34138 3.95646 7.38747 3.9659C7.39267 3.96699 7.39783 3.96832 7.40306 3.9694C7.45034 3.97935 7.49732 3.99002 7.54385 4.00194C7.5484 4.00313 7.55292 4.00452 7.55744 4.00571C7.60448 4.01801 7.65115 4.03119 7.69734 4.04552C7.70111 4.04671 7.70482 4.04803 7.70855 4.04922C7.75559 4.06403 7.80233 4.07972 7.84846 4.09664C7.84954 4.09701 7.85056 4.09749 7.85158 4.09786C9.08688 4.55232 9.97044 5.74082 9.97044 7.13189C9.97044 7.42855 10.2109 7.66899 10.5075 7.66899C10.8042 7.66899 11.0446 7.42851 11.0446 7.13189C11.0446 5.56926 10.2078 4.19864 8.95883 3.44405C9.64895 2.53625 10.7283 1.99025 11.8886 1.99025C13.9174 1.99025 15.568 3.64078 15.568 5.66963C15.568 6.20849 15.4533 6.72875 15.2272 7.21602C15.1607 7.35926 15.1607 7.5245 15.227 7.6678C15.2934 7.8111 15.4194 7.91792 15.5717 7.95987C16.4346 8.19777 17.0373 8.98958 17.0373 9.88546C17.0373 10.9871 16.141 11.8833 15.0394 11.8833H13.2872C12.9905 11.8833 12.7501 12.1238 12.7501 12.4204C12.7501 12.717 12.9906 12.9575 13.2872 12.9575H15.0394C16.7334 12.9575 18.1115 11.5794 18.1115 9.88546C18.1115 8.70878 17.4352 7.64885 16.4109 7.13661Z" fill="white"/>
<path d="M11.0508 13.3444C11.0508 14.2343 10.3294 14.9557 9.43946 14.9557C8.54952 14.9557 7.82812 14.2343 7.82812 13.3444C7.82812 11.7331 9.43946 10.7305 9.43946 10.7305C9.43946 10.7305 11.0508 11.7331 11.0508 13.3444Z" fill="#23BDFF"/>
<path d="M9.4375 15.4928C8.25284 15.4928 7.28906 14.5291 7.28906 13.3444C7.28906 11.4564 9.0776 10.3218 9.15375 10.2744C9.32752 10.1663 9.54751 10.1663 9.72125 10.2744C9.79737 10.3218 11.5859 11.4564 11.5859 13.3444C11.5859 14.5291 10.6222 15.4928 9.4375 15.4928ZM9.43893 11.3993C9.04105 11.7317 8.3633 12.432 8.3633 13.3444C8.3633 13.9367 8.8452 14.4186 9.43753 14.4186C10.0299 14.4186 10.5118 13.9367 10.5118 13.3444C10.5117 12.4251 9.83724 11.7297 9.43893 11.3993Z" fill="white"/>
<path d="M15.3125 16.5868C15.3125 17.2394 14.7834 17.7685 14.1309 17.7685C13.4783 17.7685 12.9492 17.2394 12.9492 16.5868C12.9492 15.4052 14.1309 14.6699 14.1309 14.6699C14.1309 14.6699 15.3125 15.4051 15.3125 16.5868Z" fill="#23BDFF"/>
<path d="M14.1347 18.3056C13.187 18.3056 12.416 17.5346 12.416 16.5868C12.416 15.1237 13.7924 14.2504 13.851 14.2139C14.0247 14.1058 14.2448 14.1058 14.4185 14.2139C14.4771 14.2504 15.8535 15.1236 15.8535 16.5868C15.8535 17.5346 15.0825 18.3056 14.1347 18.3056ZM14.1347 15.351C13.8617 15.6001 13.4902 16.0397 13.4902 16.5868C13.4902 16.9422 13.7793 17.2313 14.1347 17.2313C14.4902 17.2313 14.7793 16.9422 14.7793 16.5868C14.7793 16.0399 14.4081 15.6006 14.1347 15.351Z" fill="white"/>
<path d="M5.92577 16.5868C5.92577 17.2394 5.39672 17.7685 4.74414 17.7685C4.09155 17.7685 3.5625 17.2394 3.5625 16.5868C3.5625 15.4052 4.74414 14.6699 4.74414 14.6699C4.74414 14.6699 5.92577 15.4051 5.92577 16.5868Z" fill="#23BDFF"/>
<path d="M4.74803 18.3056C3.80032 18.3056 3.0293 17.5346 3.0293 16.5868C3.0293 15.1237 4.40569 14.2504 4.46428 14.2139C4.63798 14.1058 4.85808 14.1058 5.03178 14.2139C5.09037 14.2504 6.46677 15.1236 6.46677 16.5868C6.4668 17.5346 5.69578 18.3056 4.74803 18.3056ZM4.74793 15.351C4.47491 15.6001 4.10346 16.0397 4.10346 16.5868C4.10346 16.9422 4.39258 17.2313 4.748 17.2313C5.10342 17.2313 5.39253 16.9422 5.39253 16.5868C5.39257 16.0399 5.02139 15.6006 4.74793 15.351Z" fill="white"/>
</g>
<defs>
<clipPath id="clip0_183_2895">
<rect width="17.3905" height="17.3905" fill="white" transform="translate(0.742188 0.916016)"/>
</clipPath>
</defs>
</svg>
