<svg width="12" height="32" viewBox="0 0 12 32" fill="none" xmlns="http://www.w3.org/2000/svg">
<path d="M6.01348 0.829102C5.80855 0.829102 5.63289 0.905219 5.48066 1.06916L1.019 5.6245C0.89019 5.75331 0.819928 5.91726 0.819928 6.11048C0.819928 6.49692 1.1244 6.80725 1.5167 6.80725C1.70992 6.80725 1.87972 6.72528 2.01439 6.59646L6.01348 2.49197L10.0126 6.59646C10.1472 6.72528 10.3229 6.80725 10.5103 6.80725C10.9026 6.80725 11.207 6.49692 11.207 6.11048C11.207 5.91726 11.1368 5.75331 11.008 5.6245L6.55216 1.06916C6.39407 0.905219 6.21841 0.829102 6.01348 0.829102Z" fill="#00E0FF"/>
<path d="M6.01348 31.4073C6.21841 31.4015 6.39407 31.3254 6.55216 31.1673L11.008 26.6119C11.1368 26.4773 11.207 26.3192 11.207 26.126C11.207 25.7337 10.9026 25.4292 10.5103 25.4292C10.3229 25.4292 10.1472 25.5053 10.0126 25.64L6.01348 29.7386L2.01439 25.64C1.87972 25.5053 1.70992 25.4292 1.5167 25.4292C1.1244 25.4292 0.819928 25.7337 0.819928 26.126C0.819928 26.3133 0.89019 26.4773 1.019 26.6119L5.48066 31.1673C5.63289 31.3312 5.80855 31.4073 6.01348 31.4073Z" fill="#00E0FF"/>
</svg>
