<svg width="573" height="732" viewBox="0 0 573 732" fill="none" xmlns="http://www.w3.org/2000/svg">
<g filter="url(#filter0_f_70_1915)">
<path d="M35.5602 729C17.5777 729 3 714.422 3 696.44V35.5602C3 17.5777 17.5777 3 35.5602 3H537.44C555.422 3 570 17.5777 570 35.5602V696.44C570 714.422 555.422 729 537.44 729H35.5602Z" fill="white" fill-opacity="0.17"/>
</g>
<defs>
<filter id="filter0_f_70_1915" x="0.919084" y="0.919084" width="571.162" height="730.162" filterUnits="userSpaceOnUse" color-interpolation-filters="sRGB">
<feFlood flood-opacity="0" result="BackgroundImageFix"/>
<feBlend mode="normal" in="SourceGraphic" in2="BackgroundImageFix" result="shape"/>
<feGaussianBlur stdDeviation="1.04046" result="effect1_foregroundBlur_70_1915"/>
</filter>
</defs>
</svg>
