<svg width="16" height="17" viewBox="0 0 16 17" fill="none" xmlns="http://www.w3.org/2000/svg">
<path fill-rule="evenodd" clip-rule="evenodd" d="M0.0619478 11.7309C1.25293 14.7667 4.20911 16.9162 7.66732 16.9162C12.1776 16.9162 15.834 13.2598 15.834 8.74951C15.834 4.4441 12.5023 0.916841 8.27651 0.605225C6.79148 2.16696 5.0011 3.43474 3.00218 4.31285C2.80594 4.39905 2.67177 4.51837 2.60426 4.60849C2.57849 4.64288 2.5674 4.66517 2.56306 4.67624C2.5605 7.3494 1.62386 9.80388 0.0619478 11.7309ZM2.56065 4.68452C2.56045 4.68454 2.56075 4.68261 2.56215 4.67867C2.56156 4.68253 2.56085 4.6845 2.56065 4.68452Z" fill="white"/>
</svg>
