<svg width="27" height="37" viewBox="0 0 27 37" fill="none" xmlns="http://www.w3.org/2000/svg">
<path fill-rule="evenodd" clip-rule="evenodd" d="M0.185896 14.3748C0.196735 14.3748 0.205282 14.3655 0.204475 14.3547C0.179852 14.0244 0.167318 13.6907 0.167318 13.3541C0.167318 6.02481 6.10887 0.083252 13.4382 0.083252C20.7674 0.083252 26.709 6.02481 26.709 13.3541C26.709 18.7867 23.4447 23.4568 18.7705 25.5101C17.4847 26.075 16.5006 27.2619 16.5006 28.6664C16.5006 33.1767 12.8443 36.8331 8.33394 36.8331C3.82362 36.8331 0.167276 33.1767 0.167276 28.6664V14.3934C0.167276 14.3831 0.175611 14.3748 0.185896 14.3748Z" fill="white"/>
</svg>
