<svg width="30" height="22" viewBox="0 0 30 22" fill="none" xmlns="http://www.w3.org/2000/svg">
<path fill-rule="evenodd" clip-rule="evenodd" d="M11.4795 21.9208C11.4795 21.9123 11.4722 21.9056 11.4637 21.9063C11.2026 21.9266 10.9389 21.9373 10.6729 21.9382C4.87765 21.9571 0.164401 17.2744 0.145518 11.4792C0.126636 5.68403 4.80927 0.970776 10.6045 0.951894C14.9001 0.937897 18.6012 3.50702 20.2367 7.19767C20.6866 8.21277 21.6275 8.98765 22.7378 8.98403C26.3041 8.97241 29.2045 11.854 29.2161 15.4203C29.2278 18.9866 26.3461 21.8871 22.7798 21.8987L11.4942 21.9354C11.4861 21.9355 11.4795 21.9289 11.4795 21.9208Z" fill="white"/>
</svg>
