<svg width="22" height="12" viewBox="0 0 22 12" fill="none" xmlns="http://www.w3.org/2000/svg">
<g filter="url(#filter0_ii_169_1251)">
<path fill-rule="evenodd" clip-rule="evenodd" d="M10.47 11.0257L10.47 11.0258L4.45407 11.0446C2.47957 11.0508 0.873463 9.4551 0.866745 7.4806C0.860027 5.50609 2.45524 3.90044 4.42975 3.89428L5.65011 3.89047C6.64812 3.88736 7.57596 4.18933 8.34529 4.70862C9.4343 2.33746 11.8263 0.687653 14.6074 0.678975L16.3536 0.673526C19.2072 0.664621 21.5283 2.97068 21.5381 5.82425C21.5478 8.67781 19.2424 10.9983 16.3888 11.0072L10.47 11.0257Z" fill="white"/>
</g>
<defs>
<filter id="filter0_ii_169_1251" x="-3.07404" y="-2.61077" width="26.3628" height="16.064" filterUnits="userSpaceOnUse" color-interpolation-filters="sRGB">
<feFlood flood-opacity="0" result="BackgroundImageFix"/>
<feBlend mode="normal" in="SourceGraphic" in2="BackgroundImageFix" result="shape"/>
<feColorMatrix in="SourceAlpha" type="matrix" values="0 0 0 0 0 0 0 0 0 0 0 0 0 0 0 0 0 0 127 0" result="hardAlpha"/>
<feOffset dx="1.75166" dy="-3.28436"/>
<feGaussianBlur stdDeviation="3.28436"/>
<feComposite in2="hardAlpha" operator="arithmetic" k2="-1" k3="1"/>
<feColorMatrix type="matrix" values="0 0 0 0 0 0 0 0 0 0 0 0 0 0 0 0 0 0 0.2 0"/>
<feBlend mode="normal" in2="shape" result="effect1_innerShadow_169_1251"/>
<feColorMatrix in="SourceAlpha" type="matrix" values="0 0 0 0 0 0 0 0 0 0 0 0 0 0 0 0 0 0 127 0" result="hardAlpha"/>
<feOffset dx="-3.94123" dy="2.40853"/>
<feGaussianBlur stdDeviation="3.28436"/>
<feComposite in2="hardAlpha" operator="arithmetic" k2="-1" k3="1"/>
<feColorMatrix type="matrix" values="0 0 0 0 1 0 0 0 0 1 0 0 0 0 1 0 0 0 1 0"/>
<feBlend mode="normal" in2="effect1_innerShadow_169_1251" result="effect2_innerShadow_169_1251"/>
</filter>
</defs>
</svg>
